^C:\USERS\ЕВГЕНИЙ\SOURCE\REPOS\HOMEWORK 18\HOMEWORK 18.CPP
C:\USERS\Евгений\SOURCE\REPOS\HOMEWORK 18\DEBUG\VC142.PDB
C:\USERS\Евгений\SOURCE\REPOS\HOMEWORK 18\DEBUG\VC142.IDB
C:\USERS\Евгений\SOURCE\REPOS\HOMEWORK 18\DEBUG\HOMEWORK 18.OBJ
